…
for miu = 0, 1, 2, 3, 4, 5, 6

``` r
set.seed(1)

clean_outp_test = 
  tibble(
    miu_value = c(0, 1, 2, 3, 4, 5, 6)) %>% 
    mutate(output_lists = map(.x = miu_value, ~sim_t_test(mu = .x))) %>% 
    unnest(output_lists)

clean_outp_test
```

    ## # A tibble: 35,000 x 4
    ##    miu_value estimate p.value accept_h0     
    ##        <dbl>    <dbl>   <dbl> <chr>         
    ##  1         0    0.412  0.629  Fail to reject
    ##  2         0    0.664  0.368  Fail to reject
    ##  3         0    0.551  0.534  Fail to reject
    ##  4         0    0.567  0.487  Fail to reject
    ##  5         0   -1.65   0.0599 Fail to reject
    ##  6         0    1.19   0.229  Fail to reject
    ##  7         0    0.334  0.738  Fail to reject
    ##  8         0   -1.19   0.209  Fail to reject
    ##  9         0    0.122  0.887  Fail to reject
    ## 10         0    0.684  0.472  Fail to reject
    ## # … with 34,990 more rows
…
